<svg xmlns="http://www.w3.org/2000/svg" xmlns:xlink="http://www.w3.org/1999/xlink" viewBox="0 0 588.72 62.64" id="ThermoFoam">
  <defs>
    <style>
      .cls-1 {
        isolation: isolate;
      }

      .cls-2 {
        opacity: 0.75;
        mix-blend-mode: screen;
      }

      .cls-3, .cls-4 {
        fill: #fff;
        stroke: #fff;
        stroke-linecap: round;
        stroke-linejoin: round;
      }

      .cls-3 {
        stroke-width: 0.25px;
      }

      .cls-4 {
        stroke-width: 0.5px;
      }
    </style>
  </defs>
  <title>ThermoFoam™</title>
  <g class="cls-1">
    <g id="Layer_1" data-name="Layer 1">
      <g>
        <g>
          <path class="cls-3" d="M43.86,1.91a.7.7,0,0,1-.74.74H22.84V52.23a.8.8,0,0,1-.74.74.7.7,0,0,1-.74-.74V2.65H.87a.7.7,0,0,1-.74-.74.7.7,0,0,1,.74-.74H43.12A.7.7,0,0,1,43.86,1.91Z" transform="translate(4.38 4.36)"/>
          <path class="cls-3" d="M94.4,1.91V52.23a.8.8,0,0,1-.81.74.75.75,0,0,1-.81-.74V32.77H60.21V52.23a.74.74,0,0,1-.74.74.76.76,0,0,1-.81-.74V1.91a.76.76,0,0,1,.81-.74.74.74,0,0,1,.74.74V31.29H92.78V1.91a.76.76,0,0,1,.81-.74A.81.81,0,0,1,94.4,1.91Z" transform="translate(4.38 4.36)"/>
          <path class="cls-3" d="M144.43,52.23a.8.8,0,0,1-.74.74H109.94a.74.74,0,0,1-.74-.74V1.91a.7.7,0,0,1,.74-.74h33.75a.74.74,0,1,1,0,1.48h-33V31.22h25a.74.74,0,1,1,0,1.48h-25V51.49h33A.74.74,0,0,1,144.43,52.23Z" transform="translate(4.38 4.36)"/>
          <path class="cls-3" d="M197.26,51.86a.77.77,0,0,1-.29,1,.6.6,0,0,1-.37.07.76.76,0,0,1-.67-.37L184.24,32.55c-1,.07-2.07.15-3.18.15H160.78V52.23A.8.8,0,0,1,160,53a.81.81,0,0,1-.82-.74V1.91a.76.76,0,0,1,.82-.74h21c12.28,0,16.72,9.18,16.72,15.39,0,4.59-1.33,8.51-3.92,11.33a14.64,14.64,0,0,1-8.07,4.36Zm-16.2-20.64c5.1,0,9-1.48,11.69-4.37a15.11,15.11,0,0,0,3.55-10.29A14.24,14.24,0,0,0,193,7.61c-2.74-3.26-6.88-5-11.91-5H160.78V31.22Z" transform="translate(4.38 4.36)"/>
          <path class="cls-3" d="M211.47,53a.74.74,0,0,1-.74-.74V1.91a.72.72,0,0,1,.59-.74.7.7,0,0,1,.81.44l23.09,48.85L258.83,1.61a.76.76,0,0,1,.89-.44.79.79,0,0,1,.59.74V52.23a.69.69,0,0,1-.74.74.75.75,0,0,1-.81-.74v-47L235.89,52.53a.65.65,0,0,1-.67.44.7.7,0,0,1-.66-.44L212.21,5.31v47A.68.68,0,0,1,211.47,53Z" transform="translate(4.38 4.36)"/>
          <path class="cls-3" d="M299.6,53.42A26.35,26.35,0,1,1,326,27.07,26.4,26.4,0,0,1,299.6,53.42Zm.08-51.21A24.83,24.83,0,1,0,324.47,27,24.92,24.92,0,0,0,299.68,2.21Z" transform="translate(4.38 4.36)"/>
          <path class="cls-4" d="M339.64,53a.76.76,0,0,1-.74-.81V1.91a.74.74,0,0,1,.74-.74h33.74a.74.74,0,0,1,.74.74.7.7,0,0,1-.74.74h-33V52.16A.76.76,0,0,1,339.64,53ZM365.39,32.7h-15a.81.81,0,0,1-.82-.74.82.82,0,0,1,.82-.82h15a.76.76,0,0,1,.74.82A.74.74,0,0,1,365.39,32.7Z" transform="translate(4.38 4.36)"/>
          <path class="cls-4" d="M409.64,53.42a.8.8,0,0,1-.74-.74.74.74,0,0,1,.74-.74A24.87,24.87,0,1,0,384.92,27a.8.8,0,0,1-.74.74.81.81,0,0,1-.81-.74,26.27,26.27,0,1,1,26.27,26.42Z" transform="translate(4.38 4.36)"/>
          <path class="cls-4" d="M476.46,31.66a.85.85,0,0,1-.07.74.68.68,0,0,1-.59.3H451.15l-8.21,19.83a.8.8,0,0,1-.74.44.61.61,0,0,1-.3-.07.73.73,0,0,1-.37-1l21-50.33a.72.72,0,0,1,1.33,0Zm-1.85-.44L463.22,3.91l-11.4,27.31ZM484.9,51.94l-4.37-10.59a.79.79,0,0,0-1-.37.74.74,0,0,0-.37,1l4.36,10.58a.81.81,0,0,0,.74.44.59.59,0,0,0,.3-.07A.73.73,0,0,0,484.9,51.94Z" transform="translate(4.38 4.36)"/>
          <path class="cls-4" d="M547.58,1.91V52.23a.8.8,0,0,1-.74.74.81.81,0,0,1-.82-.74v-47L523.45,52.53a.7.7,0,0,1-.66.44.79.79,0,0,1-.74-.44L499.47,5.24V41.35a.74.74,0,0,1-.74.74.76.76,0,0,1-.81-.74V1.91a.88.88,0,0,1,.59-.74.86.86,0,0,1,.89.44l23.39,48.85L546.1,1.61a.86.86,0,0,1,.89-.44A.77.77,0,0,1,547.58,1.91Z" transform="translate(4.38 4.36)"/>
          <path class="cls-4" d="M565.63.41a.15.15,0,0,1-.16.16h-4.38V11.3a.17.17,0,0,1-.16.16.15.15,0,0,1-.16-.16V.57h-4.44a.15.15,0,0,1-.16-.16.16.16,0,0,1,.16-.16h9.14A.15.15,0,0,1,565.63.41Z" transform="translate(4.38 4.36)"/>
          <path class="cls-4" d="M569,11.46a.16.16,0,0,1-.16-.16V.41A.16.16,0,0,1,569,.25a.16.16,0,0,1,.17.1l5,10.56L579.23.35a.19.19,0,0,1,.2-.1.17.17,0,0,1,.12.16V11.3a.15.15,0,0,1-.16.16.16.16,0,0,1-.17-.16V1.13l-5,10.23a.13.13,0,0,1-.14.1.16.16,0,0,1-.15-.1L569.15,1.15V11.31A.15.15,0,0,1,569,11.46Z" transform="translate(4.38 4.36)"/>
        </g>
      </g>
    </g>
  </g>
</svg>
