<?xml version="1.0" encoding="UTF-8"?>
<svg width="94px" height="46px" viewBox="0 0 94 46" version="1.1" xmlns="http://www.w3.org/2000/svg" xmlns:xlink="http://www.w3.org/1999/xlink">
    <!-- Generator: Sketch 46.2 (44496) - http://www.bohemiancoding.com/sketch -->
    <title>Page 1</title>
    <desc>Created with Sketch.</desc>
    <defs>
        <polygon id="path-1" points="11.0478461 11.0588235 1.17093436 11.0588235 1.17093436 0.0439883899 11.0478461 0.0439883899"></polygon>
    </defs>
    <g id="Page-1" stroke="none" stroke-width="1" fill="none" fill-rule="evenodd">
        <g id="HOME-MOBILE" transform="translate(-22.000000, -17.000000)">
            <g id="Page-1" transform="translate(22.000000, 17.000000)">
                <path d="M33.5309873,34.9784268 C30.2382226,35.0102209 28.3430167,37.4265739 28.3430167,40.4843386 C28.3430167,43.5421033 30.4179285,46.0607503 33.5005755,45.9902503 C36.1920167,45.9294268 38.5682814,44.0024268 38.5682814,40.4843386 C38.5682814,37.4265739 36.7338991,34.9466327 33.5309873,34.9784268 M33.5116344,44.2457209 C31.7353108,44.2941033 30.5381932,42.5758386 30.5381932,40.4871033 C30.5381932,38.4011327 31.6316344,36.7506033 33.5296049,36.7284856 C35.3750461,36.7077503 36.4325461,38.4011327 36.4325461,40.4871033 C36.4325461,42.8896327 35.0640167,44.2042503 33.5116344,44.2457209" id="Fill-1" fill="#D41318"></path>
                <g id="Group-5" transform="translate(16.588235, 34.933579)">
                    <mask id="mask-2" fill="white">
                        <use xlink:href="#path-1"></use>
                    </mask>
                    <g id="Clip-4"></g>
                    <path d="M6.48469907,9.28255916 C4.69731671,9.33785328 3.36749319,7.56152975 3.36749319,5.48938269 C3.36749319,3.41723564 4.46508142,1.77776505 6.32019907,1.75702975 C7.6500226,1.74320622 8.40755201,2.41779446 8.75590495,3.55961799 L10.9635226,3.53473564 C10.4852285,1.35200034 9.0835226,0.0207944588 6.35890495,0.0442944588 C3.06614024,0.0733238706 1.17093436,2.49244152 1.17093436,5.55020622 C1.17093436,8.60935328 3.15737554,11.1390592 6.32987554,11.0575003 C8.32461083,11.0049709 10.5239344,10.210118 11.0478461,7.3251474 L8.8277873,7.3251474 C8.44625789,8.79320622 7.47861083,9.2521474 6.48469907,9.28255916" id="Fill-3" fill="#D41318" mask="url(#mask-2)"></path>
                </g>
                <path d="M39.6163814,35.4475974 C39.6163814,35.399215 39.6550873,35.3605092 39.7020873,35.3605092 L47.0797049,35.3605092 C47.1267049,35.3605092 47.1654108,35.399215 47.1654108,35.4475974 L47.1654108,36.9875386 C47.1654108,37.0345386 47.1267049,37.0732445 47.0797049,37.0732445 L41.9580873,37.0732445 C41.9097049,37.0732445 41.8723814,37.1119503 41.8723814,37.1603327 L41.8723814,39.3734798 C41.8723814,39.4204798 41.9097049,39.4591856 41.9580873,39.4591856 L46.3277049,39.4591856 C46.3747049,39.4591856 46.4134108,39.4992739 46.4134108,39.5462739 L46.4134108,41.1470386 C46.4134108,41.1954209 46.3747049,41.2341268 46.3277049,41.2341268 L41.9871167,41.2341268 C41.9401167,41.2341268 41.9027932,41.2728327 41.9027932,41.3198327 L41.9027932,45.5208033 C41.9027932,45.5691856 41.8640873,45.6078915 41.8170873,45.6078915 L39.6716755,45.6078915 C39.6246755,45.6078915 39.5859697,45.5691856 39.5859697,45.5208033 L39.6163814,35.4475974 Z" id="Fill-6" fill="#D41318"></path>
                <path d="M48.5593755,35.4475974 C48.5593755,35.399215 48.5980814,35.3605092 48.6450814,35.3605092 L56.0226991,35.3605092 C56.0696991,35.3605092 56.108405,35.399215 56.108405,35.4475974 L56.108405,36.9875386 C56.108405,37.0345386 56.0696991,37.0732445 56.0226991,37.0732445 L50.8996991,37.0732445 C50.8540814,37.0732445 50.8153755,37.1119503 50.8153755,37.1603327 L50.8153755,39.3734798 C50.8153755,39.4204798 50.8540814,39.4591856 50.8996991,39.4591856 L55.2720814,39.4591856 C55.3176991,39.4591856 55.356405,39.4992739 55.356405,39.5462739 L55.356405,41.1470386 C55.356405,41.1954209 55.3176991,41.2341268 55.2720814,41.2341268 L50.9301108,41.2341268 C50.8844932,41.2341268 50.8457873,41.2728327 50.8457873,41.3198327 L50.8457873,45.5208033 C50.8457873,45.5691856 50.8070814,45.6078915 50.7600814,45.6078915 L48.6146697,45.6078915 C48.5676697,45.6078915 48.5289638,45.5691856 48.5303461,45.5208033 L48.5593755,35.4475974 Z" id="Fill-8" fill="#D41318"></path>
                <path d="M59.6552461,43.8655739 C59.6082461,43.8655739 59.5695402,43.826868 59.5695402,43.7784856 L59.5695402,41.1658386 C59.5695402,41.1188386 59.6082461,41.0801327 59.6552461,41.0801327 L64.1769226,41.0801327 C64.2225402,41.0801327 64.2612461,41.0400445 64.2612461,40.9930445 L64.2612461,39.4531033 C64.2612461,39.4061033 64.2225402,39.3673974 64.1769226,39.3673974 L59.6248344,39.3673974 C59.5778344,39.3673974 59.5405108,39.3273092 59.5405108,39.2803092 L59.5405108,37.1583974 C59.5405108,37.1113974 59.5778344,37.0726915 59.6248344,37.0726915 L64.9289226,37.0726915 C64.9759226,37.0726915 65.0132461,37.0339856 65.0132461,36.9856033 L65.0132461,35.4456621 C65.0132461,35.3986621 64.9759226,35.3599562 64.9289226,35.3599562 L57.5499226,35.3599562 C57.5029226,35.3599562 57.4642167,35.3986621 57.4642167,35.4456621 L57.4351873,45.5202503 C57.4351873,45.5672503 57.4725108,45.6073386 57.5195108,45.6073386 L58.9599226,45.6073386 C59.0069226,45.6073386 59.0442461,45.6073386 59.0442461,45.6087209 C59.0442461,45.6087209 59.082952,45.6087209 59.129952,45.6087209 L65.0035697,45.6087209 C65.051952,45.6087209 65.0892755,45.570015 65.0892755,45.523015 L65.0892755,43.9526621 C65.0892755,43.9042798 65.051952,43.8655739 65.0035697,43.8655739 L59.6552461,43.8655739 Z" id="Fill-10" fill="#D41318"></path>
                <path d="M68.5986549,43.8655739 C68.5516549,43.8655739 68.5129491,43.826868 68.5129491,43.7784856 L68.5129491,41.1658386 C68.5129491,41.1188386 68.5516549,41.0801327 68.5986549,41.0801327 L73.1203314,41.0801327 C73.1659491,41.0801327 73.204655,41.0400445 73.204655,40.9930445 L73.204655,39.4531033 C73.204655,39.4061033 73.1659491,39.3673974 73.1203314,39.3673974 L68.5682432,39.3673974 C68.5212432,39.3673974 68.4839197,39.3273092 68.4839197,39.2803092 L68.4839197,37.1583974 C68.4839197,37.1113974 68.5212432,37.0726915 68.5682432,37.0726915 L73.8723314,37.0726915 C73.9193314,37.0726915 73.956655,37.0339856 73.956655,36.9856033 L73.956655,35.4456621 C73.956655,35.3986621 73.9193314,35.3599562 73.8723314,35.3599562 L66.4933314,35.3599562 C66.4463314,35.3599562 66.4076255,35.3986621 66.4076255,35.4456621 L66.3785961,45.5202503 C66.3785961,45.5672503 66.4159197,45.6073386 66.4629197,45.6073386 L67.9033314,45.6073386 C67.9503314,45.6073386 67.9890373,45.6073386 67.9890373,45.6087209 C67.9890373,45.6087209 68.0263608,45.6087209 68.0733608,45.6087209 L73.9483608,45.6087209 C73.9939785,45.6087209 74.0326844,45.570015 74.0326844,45.523015 L74.0326844,43.9526621 C74.0326844,43.9042798 73.9939785,43.8655739 73.9483608,43.8655739 L68.5986549,43.8655739 Z" id="Fill-12" fill="#D41318"></path>
                <path d="M32.4484667,20.1619533 L32.5286432,20.0873062 C32.8078785,15.8531592 33.738202,12.9211886 35.8227902,9.66989446 C37.8354961,6.52642387 40.2698197,4.36442387 43.2874961,2.48442387 C47.9446432,-0.404693776 54.2440255,-0.931370247 58.9647608,1.74210034 C58.9647608,1.74210034 60.5033197,2.68486505 61.2843491,0.914070929 L65.7659373,0.914070929 C65.7659373,0.914070929 66.0824961,0.963835635 65.933202,1.35089446 L62.5644079,11.6798356 C62.5644079,11.6798356 62.4441432,12.1000709 62.713702,11.7931886 C66.3506726,5.16757093 71.7529079,0.839423871 78.4324373,0.151012106 C80.3981432,-0.0521937765 82.2905844,0.264365047 84.1678197,0.8767474 C85.3179373,1.25551211 86.3242902,2.13883564 87.553202,1.99368858 C88.0909373,1.93562975 88.5263785,1.31633564 88.7364961,0.925129753 L93.2706138,0.922365047 C93.2706138,0.922365047 93.5774961,0.955541518 93.4503197,1.34121799 L89.9405255,12.5728356 C89.9405255,12.5728356 89.9405255,12.883865 89.456702,12.8617474 L83.9355844,12.8617474 L83.8526432,12.8064533 C84.5299961,10.3555415 85.6787314,6.85680622 83.1103197,5.53665916 C78.5623785,3.20601211 74.4954961,7.78851211 72.3542314,11.6051886 C70.2585844,15.347218 68.2735255,21.8428945 72.5892314,23.9731003 C76.0630844,25.6803062 79.8244667,22.0640709 81.866202,18.4893062 C81.8219667,18.4893062 81.9519079,18.3870121 82.0790844,18.3870121 L87.2463197,18.3870121 C87.4564373,18.3870121 87.6250844,18.4561298 87.5393785,18.6800709 C85.6165255,23.6510121 81.8966138,26.8788062 79.7567314,28.1561003 C75.9718491,30.4176298 71.0962902,31.025865 67.4524079,29.7458062 C64.6517608,28.7629533 62.4648785,26.6451886 61.3949373,23.7657474 C60.1024373,20.2905121 60.8558197,16.5761298 62.0225255,13.1879827 C62.1718197,12.7732768 61.7902902,12.8714239 61.7902902,12.8714239 L56.4654667,12.8617474 L56.3051138,12.7179827 C56.7322608,11.1033945 57.4579961,8.48936505 56.932702,7.01854152 C56.4378197,5.62651211 55.2061432,4.91598269 53.901202,4.78880622 C50.2504079,4.43215916 47.3101432,7.49683564 45.5034079,10.2560121 C43.2999373,13.6261886 41.7102314,17.2189239 42.4898785,21.2982474 C42.8216432,23.035865 44.1887902,24.1293062 45.8047608,24.4057768 C49.4237608,25.0209239 52.2949079,21.3466298 54.3615255,18.3870121 L59.584055,18.3870121 C59.584055,18.3870121 59.7734373,18.3870121 59.7734373,18.566718 C56.6119961,27.2313062 47.6584961,32.5188062 39.3823491,29.7250709 C36.8028785,28.8541886 34.748702,26.9036886 33.6124079,24.3159239 C33.4824667,24.1528062 33.4174961,24.2592474 33.3525255,24.3601592 C30.7564667,28.3551592 26.9384079,31.609218 22.266055,30.1383945 C20.6694373,29.635218 19.8704373,27.3626298 19.8275844,25.1536298 C19.826202,25.0209239 19.7529373,25.0126298 19.6796726,25.0444239 C16.6288197,28.7353062 12.2094373,31.0189533 7.39884907,30.4162474 C4.01346671,29.9891003 1.80308436,26.6410415 2.20396671,23.2681003 C2.89652554,17.4166003 5.33084907,13.2059533 6.63302554,7.58254152 C7.2481726,5.46477681 4.75440789,5.64171799 4.75440789,5.64171799 L0.589378479,5.64171799 C-0.15294505,5.64171799 0.0170843618,4.98233564 0.0170843618,4.98233564 L1.22249613,1.24998269 C1.39252554,0.856012106 1.81414319,0.940335635 1.81414319,0.940335635 L17.3766726,0.936188576 C15.9639079,6.70612975 13.7963785,12.1636592 12.2204961,17.9875121 C11.9592314,18.9413356 11.5320844,19.9407768 11.8375844,20.9457474 C12.1016138,21.8193945 12.5688491,22.4732474 13.4881138,22.7041003 C14.7778491,23.0248062 15.7717608,22.4926003 16.8347902,21.7931298 C18.0097902,21.0217768 18.694055,19.8384827 19.3299373,18.6233945 C22.2798785,13.0124239 23.5917314,6.93698269 25.4952314,0.934806224 L34.4570255,0.934806224 C32.6668785,7.8092474 30.3348491,14.3436298 28.2530255,21.1531003 C28.0926726,21.668718 28.1465844,22.4262474 28.5585255,22.6902768 C29.0202314,22.9874827 29.5303197,22.8962474 30.0459373,22.5326886 C30.8559961,21.9631592 31.270702,20.9568062 31.6840255,20.2283062 C31.7061432,20.1854533 31.7711138,20.1536592 31.8153491,20.1619533 L32.4484667,20.1619533 Z" id="Fill-14" fill="#D41318"></path>
                <path d="M87.8079697,24.8488209 C88.3678226,24.2544092 89.0424108,23.9572033 89.8331167,23.9572033 C90.6238226,23.9572033 91.2984108,24.246115 91.8582638,24.8225562 C92.4181167,25.416968 92.6987344,26.1330268 92.6987344,26.972115 C92.6987344,27.8112033 92.4181167,28.5286445 91.8582638,29.1230562 C91.2984108,29.717468 90.6238226,30.0146739 89.8331167,30.0146739 C89.0424108,30.0146739 88.3678226,29.717468 87.8079697,29.1230562 C87.2481167,28.5286445 86.9674991,27.8112033 86.9674991,26.972115 C86.9674991,26.1509974 87.2481167,25.4432327 87.8079697,24.8488209 M91.6605873,25.0326739 C91.1504991,24.5087621 90.5408814,24.246115 89.8331167,24.246115 C89.125352,24.246115 88.5240285,24.5087621 88.0305285,25.0326739 C87.5190579,25.5745562 87.264705,26.2214974 87.264705,26.972115 C87.264705,27.7420856 87.5190579,28.3890268 88.0305285,28.9129386 C88.5240285,29.4548209 89.125352,29.7257621 89.8331167,29.7257621 C90.5408814,29.7257621 91.1504991,29.4548209 91.6605873,28.9129386 C92.1540873,28.3890268 92.4015285,27.7420856 92.4015285,26.972115 C92.4015285,26.2214974 92.1540873,25.5745562 91.6605873,25.0326739" id="Fill-16" fill="#D41318"></path>
                <path d="M91.3480373,26.7669739 C91.1697138,26.963268 90.8683608,27.1056503 90.4412138,27.1968856 L91.8014491,28.9815033 L91.0010667,28.9815033 L89.8011844,27.2411209 L88.761655,27.2411209 L88.761655,29.0036209 L88.1492726,29.0036209 L88.1492726,24.9146209 L89.987802,24.9146209 C90.5213902,24.9146209 90.9305667,25.0265915 91.2153314,25.2532974 C91.4987138,25.4786209 91.6410961,25.7509445 91.6410961,26.0661209 C91.6410961,26.3232386 91.5429491,26.5568562 91.3480373,26.7669739 M90.7080079,25.5698562 C90.5130961,25.4495915 90.2822432,25.388768 90.0154491,25.388768 L88.761655,25.388768 L88.761655,26.7890915 L89.9090079,26.7890915 C90.246302,26.7890915 90.5034197,26.7144445 90.6817432,26.563768 C90.8586844,26.4282974 90.9485373,26.2555033 90.9485373,26.0440033 C90.9485373,25.862915 90.8683608,25.7053268 90.7080079,25.5698562" id="Fill-18" fill="#D41318"></path>
            </g>
        </g>
    </g>
</svg>