{
    "key": "group_5a97be1ea65a3",
    "title": "Divided Colour Block",
    "fields": [
        {
            "key": "field_5a97c987d916a",
            "label": "Section Selection",
            "name": "section_selection",
            "type": "flexible_content",
            "instructions": "",
            "required": 0,
            "conditional_logic": 0,
            "wrapper": {
                "width": "",
                "class": "",
                "id": ""
            },
            "layouts": {
                "5a97c99cdcca6": {
                    "key": "5a97c99cdcca6",
                    "name": "standard_block",
                    "label": "Standard Block",
                    "display": "block",
                    "sub_fields": [
                        {
                            "key": "field_5a97bf38ef78e",
                            "label": "Section One",
                            "name": "",
                            "type": "tab",
                            "instructions": "",
                            "required": 0,
                            "conditional_logic": 0,
                            "wrapper": {
                                "width": "",
                                "class": "",
                                "id": ""
                            },
                            "placement": "top",
                            "endpoint": 0
                        },
                        {
                            "key": "field_5a97bf46ef78f",
                            "label": "Background Colour Selection",
                            "name": "background_colour_selection",
                            "type": "radio",
                            "instructions": "Select the background colour for the section",
                            "required": 0,
                            "conditional_logic": 0,
                            "wrapper": {
                                "width": "",
                                "class": "",
                                "id": ""
                            },
                            "choices": {
                                "light": "Light",
                                "dark": "Dark"
                            },
                            "allow_null": 0,
                            "other_choice": 0,
                            "save_other_choice": 0,
                            "default_value": "",
                            "layout": "horizontal",
                            "return_format": "value"
                        },
                        {
                            "key": "field_5a97c314ef790",
                            "label": "Image",
                            "name": "image_first_section",
                            "type": "image",
                            "instructions": "",
                            "required": 0,
                            "conditional_logic": 0,
                            "wrapper": {
                                "width": "",
                                "class": "",
                                "id": ""
                            },
                            "return_format": "id",
                            "preview_size": "thumbnail",
                            "library": "all",
                            "min_width": "",
                            "min_height": "",
                            "min_size": "",
                            "max_width": "",
                            "max_height": "",
                            "max_size": "",
                            "mime_types": ""
                        },
                        {
                            "key": "field_5a97c31bef791",
                            "label": "Quote",
                            "name": "quote",
                            "type": "text",
                            "instructions": "",
                            "required": 0,
                            "conditional_logic": 0,
                            "wrapper": {
                                "width": "50",
                                "class": "",
                                "id": ""
                            },
                            "default_value": "",
                            "placeholder": "",
                            "prepend": "",
                            "append": "",
                            "maxlength": ""
                        },
                        {
                            "key": "field_5a97c336ef792",
                            "label": "Micro Title",
                            "name": "micro_title",
                            "type": "text",
                            "instructions": "",
                            "required": 0,
                            "conditional_logic": 0,
                            "wrapper": {
                                "width": "50",
                                "class": "",
                                "id": ""
                            },
                            "default_value": "",
                            "placeholder": "",
                            "prepend": "",
                            "append": "",
                            "maxlength": ""
                        },
                        {
                            "key": "field_5a97c33fef793",
                            "label": "Line Flag",
                            "name": "line_flag",
                            "type": "radio",
                            "instructions": "Display the horizontal line in this section",
                            "required": 0,
                            "conditional_logic": 0,
                            "wrapper": {
                                "width": "50",
                                "class": "",
                                "id": ""
                            },
                            "choices": {
                                "no": "No",
                                "yes": "Yes"
                            },
                            "allow_null": 0,
                            "other_choice": 0,
                            "save_other_choice": 0,
                            "default_value": "",
                            "layout": "horizontal",
                            "return_format": "value"
                        },
                        {
                            "key": "field_5a97c38a8be7b",
                            "label": "Content Block",
                            "name": "content_block",
                            "type": "flexible_content",
                            "instructions": "",
                            "required": 0,
                            "conditional_logic": 0,
                            "wrapper": {
                                "width": "",
                                "class": "",
                                "id": ""
                            },
                            "layouts": {
                                "5a97c3a139fb5": {
                                    "key": "5a97c3a139fb5",
                                    "name": "standard_sub_block",
                                    "label": "Standard Sub Block",
                                    "display": "block",
                                    "sub_fields": [
                                        {
                                            "key": "field_5a97cbf5f76b5",
                                            "label": "Title",
                                            "name": "title",
                                            "type": "text",
                                            "instructions": "",
                                            "required": 0,
                                            "conditional_logic": 0,
                                            "wrapper": {
                                                "width": "",
                                                "class": "",
                                                "id": ""
                                            },
                                            "default_value": "",
                                            "placeholder": "",
                                            "prepend": "",
                                            "append": "",
                                            "maxlength": ""
                                        },
                                        {
                                            "key": "field_5a97cbfbf76b6",
                                            "label": "Content",
                                            "name": "content",
                                            "type": "textarea",
                                            "instructions": "",
                                            "required": 0,
                                            "conditional_logic": 0,
                                            "wrapper": {
                                                "width": "",
                                                "class": "",
                                                "id": ""
                                            },
                                            "default_value": "",
                                            "placeholder": "",
                                            "maxlength": "",
                                            "rows": "",
                                            "new_lines": "wpautop"
                                        },
                                        {
                                            "key": "field_5acc8703e54ba",
                                            "label": "Links",
                                            "name": "links",
                                            "type": "repeater",
                                            "instructions": "",
                                            "required": 0,
                                            "conditional_logic": 0,
                                            "wrapper": {
                                                "width": "",
                                                "class": "",
                                                "id": ""
                                            },
                                            "collapsed": "",
                                            "min": 0,
                                            "max": 2,
                                            "layout": "block",
                                            "button_label": "",
                                            "sub_fields": [
                                                {
                                                    "key": "field_5acc8703e54bb",
                                                    "label": "Link Type",
                                                    "name": "link_type",
                                                    "type": "radio",
                                                    "instructions": "Choose to link to a page or post in the website, or to use an external link",
                                                    "required": 0,
                                                    "conditional_logic": 0,
                                                    "wrapper": {
                                                        "width": "",
                                                        "class": "",
                                                        "id": ""
                                                    },
                                                    "choices": {
                                                        "in": "Internal",
                                                        "ex": "External",
                                                        "lt": "Contact",
                                                        "video": "Video"
                                                    },
                                                    "allow_null": 0,
                                                    "other_choice": 0,
                                                    "save_other_choice": 0,
                                                    "default_value": "",
                                                    "layout": "horizontal",
                                                    "return_format": "value"
                                                },
                                                {
                                                    "key": "field_5acc8703e54bc",
                                                    "label": "Internal Link",
                                                    "name": "internal_link",
                                                    "type": "post_object",
                                                    "instructions": "",
                                                    "required": 0,
                                                    "conditional_logic": [
                                                        [
                                                            {
                                                                "field": "field_5acc8703e54bb",
                                                                "operator": "==",
                                                                "value": "in"
                                                            }
                                                        ]
                                                    ],
                                                    "wrapper": {
                                                        "width": "50",
                                                        "class": "",
                                                        "id": ""
                                                    },
                                                    "post_type": [],
                                                    "taxonomy": [],
                                                    "allow_null": 0,
                                                    "multiple": 0,
                                                    "return_format": "id",
                                                    "ui": 1
                                                },
                                                {
                                                    "key": "field_5acc8703e54bd",
                                                    "label": "External Link",
                                                    "name": "external_link",
                                                    "type": "url",
                                                    "instructions": "",
                                                    "required": 0,
                                                    "conditional_logic": [
                                                        [
                                                            {
                                                                "field": "field_5acc8703e54bb",
                                                                "operator": "==",
                                                                "value": "ex"
                                                            }
                                                        ]
                                                    ],
                                                    "wrapper": {
                                                        "width": "50",
                                                        "class": "",
                                                        "id": ""
                                                    },
                                                    "default_value": "",
                                                    "placeholder": ""
                                                },
                                                {
                                                    "key": "field_5ba39ef095b2a",
                                                    "label": "Video Link",
                                                    "name": "video_link",
                                                    "type": "text",
                                                    "instructions": "",
                                                    "required": 0,
                                                    "conditional_logic": [
                                                        [
                                                            {
                                                                "field": "field_5acc8703e54bb",
                                                                "operator": "==",
                                                                "value": "video"
                                                            }
                                                        ]
                                                    ],
                                                    "wrapper": {
                                                        "width": "",
                                                        "class": "",
                                                        "id": ""
                                                    },
                                                    "default_value": "",
                                                    "placeholder": "",
                                                    "prepend": "",
                                                    "append": "",
                                                    "maxlength": ""
                                                },
                                                {
                                                    "key": "field_5acc8703e54be",
                                                    "label": "Link Text",
                                                    "name": "link_text",
                                                    "type": "text",
                                                    "instructions": "",
                                                    "required": 0,
                                                    "conditional_logic": [
                                                        [
                                                            {
                                                                "field": "field_5acc8703e54bb",
                                                                "operator": "!=",
                                                                "value": "no"
                                                            }
                                                        ]
                                                    ],
                                                    "wrapper": {
                                                        "width": "50",
                                                        "class": "",
                                                        "id": ""
                                                    },
                                                    "default_value": "",
                                                    "placeholder": "",
                                                    "prepend": "",
                                                    "append": "",
                                                    "maxlength": ""
                                                }
                                            ]
                                        }
                                    ],
                                    "min": "",
                                    "max": ""
                                },
                                "5a97ccc64e2f5": {
                                    "key": "5a97ccc64e2f5",
                                    "name": "number_sub_block",
                                    "label": "Number Sub Block",
                                    "display": "block",
                                    "sub_fields": [
                                        {
                                            "key": "field_5a97cd214e2f6",
                                            "label": "Title",
                                            "name": "title",
                                            "type": "text",
                                            "instructions": "",
                                            "required": 0,
                                            "conditional_logic": 0,
                                            "wrapper": {
                                                "width": "",
                                                "class": "",
                                                "id": ""
                                            },
                                            "default_value": "",
                                            "placeholder": "",
                                            "prepend": "",
                                            "append": "",
                                            "maxlength": ""
                                        },
                                        {
                                            "key": "field_5a97cd344e2f7",
                                            "label": "Number",
                                            "name": "number",
                                            "type": "text",
                                            "instructions": "",
                                            "required": 0,
                                            "conditional_logic": 0,
                                            "wrapper": {
                                                "width": "50",
                                                "class": "",
                                                "id": ""
                                            },
                                            "default_value": "",
                                            "placeholder": "",
                                            "prepend": "",
                                            "append": "",
                                            "maxlength": ""
                                        },
                                        {
                                            "key": "field_5a97cd8f4e2fa",
                                            "label": "Number Unit",
                                            "name": "number_unit",
                                            "type": "text",
                                            "instructions": "",
                                            "required": 0,
                                            "conditional_logic": 0,
                                            "wrapper": {
                                                "width": "50",
                                                "class": "",
                                                "id": ""
                                            },
                                            "default_value": "",
                                            "placeholder": "",
                                            "prepend": "",
                                            "append": "",
                                            "maxlength": ""
                                        },
                                        {
                                            "key": "field_5a97cd514e2f8",
                                            "label": "Number Text",
                                            "name": "number_text",
                                            "type": "text",
                                            "instructions": "",
                                            "required": 0,
                                            "conditional_logic": 0,
                                            "wrapper": {
                                                "width": "",
                                                "class": "",
                                                "id": ""
                                            },
                                            "default_value": "",
                                            "placeholder": "",
                                            "prepend": "",
                                            "append": "",
                                            "maxlength": ""
                                        },
                                        {
                                            "key": "field_5a97cd5b4e2f9",
                                            "label": "Logo",
                                            "name": "logo",
                                            "type": "image",
                                            "instructions": "",
                                            "required": 0,
                                            "conditional_logic": 0,
                                            "wrapper": {
                                                "width": "",
                                                "class": "",
                                                "id": ""
                                            },
                                            "return_format": "array",
                                            "preview_size": "thumbnail",
                                            "library": "all",
                                            "min_width": "",
                                            "min_height": "",
                                            "min_size": "",
                                            "max_width": "",
                                            "max_height": "",
                                            "max_size": "",
                                            "mime_types": ""
                                        }
                                    ],
                                    "min": "",
                                    "max": ""
                                }
                            },
                            "button_label": "Add Row",
                            "min": "",
                            "max": 1
                        },
                        {
                            "key": "field_5a97c3a80e39d",
                            "label": "Section Two",
                            "name": "",
                            "type": "tab",
                            "instructions": "",
                            "required": 0,
                            "conditional_logic": 0,
                            "wrapper": {
                                "width": "",
                                "class": "",
                                "id": ""
                            },
                            "placement": "top",
                            "endpoint": 0
                        },
                        {
                            "key": "field_5a97c3b20e39e",
                            "label": "Background Colour Selection",
                            "name": "background_colour_selection_2",
                            "type": "radio",
                            "instructions": "Select the background colour for the section",
                            "required": 0,
                            "conditional_logic": 0,
                            "wrapper": {
                                "width": "",
                                "class": "",
                                "id": ""
                            },
                            "choices": {
                                "light": "Light",
                                "dark": "Dark"
                            },
                            "allow_null": 0,
                            "other_choice": 0,
                            "save_other_choice": 0,
                            "default_value": "",
                            "layout": "horizontal",
                            "return_format": "value"
                        },
                        {
                            "key": "field_5a97c40a277e8",
                            "label": "Image",
                            "name": "image_second_section",
                            "type": "image",
                            "instructions": "",
                            "required": 0,
                            "conditional_logic": 0,
                            "wrapper": {
                                "width": "",
                                "class": "",
                                "id": ""
                            },
                            "return_format": "id",
                            "preview_size": "thumbnail",
                            "library": "all",
                            "min_width": "",
                            "min_height": "",
                            "min_size": "",
                            "max_width": "",
                            "max_height": "",
                            "max_size": "",
                            "mime_types": ""
                        },
                        {
                            "key": "field_5a97c413277e9",
                            "label": "Image Flag",
                            "name": "image_flag",
                            "type": "radio",
                            "instructions": "Display the image as a box or item",
                            "required": 0,
                            "conditional_logic": 0,
                            "wrapper": {
                                "width": "",
                                "class": "",
                                "id": ""
                            },
                            "choices": {
                                "box": "Boxed-Image",
                                "item": "Item Image"
                            },
                            "allow_null": 0,
                            "other_choice": 0,
                            "save_other_choice": 0,
                            "default_value": "",
                            "layout": "vertical",
                            "return_format": "value"
                        },
                        {
                            "key": "field_5a97c591277ea",
                            "label": "Title",
                            "name": "title",
                            "type": "text",
                            "instructions": "",
                            "required": 0,
                            "conditional_logic": 0,
                            "wrapper": {
                                "width": "50",
                                "class": "",
                                "id": ""
                            },
                            "default_value": "",
                            "placeholder": "",
                            "prepend": "",
                            "append": "",
                            "maxlength": ""
                        },
                        {
                            "key": "field_5a97c597277eb",
                            "label": "Sub Title",
                            "name": "sub_title",
                            "type": "text",
                            "instructions": "",
                            "required": 0,
                            "conditional_logic": 0,
                            "wrapper": {
                                "width": "50",
                                "class": "",
                                "id": ""
                            },
                            "default_value": "",
                            "placeholder": "",
                            "prepend": "",
                            "append": "",
                            "maxlength": ""
                        },
                        {
                            "key": "field_5acc86f5e54b5",
                            "label": "Links",
                            "name": "second_section_links",
                            "type": "repeater",
                            "instructions": "",
                            "required": 0,
                            "conditional_logic": 0,
                            "wrapper": {
                                "width": "",
                                "class": "",
                                "id": ""
                            },
                            "collapsed": "",
                            "min": 0,
                            "max": 0,
                            "layout": "block",
                            "button_label": "",
                            "sub_fields": [
                                {
                                    "key": "field_5acc86f5e54b6",
                                    "label": "Link Type",
                                    "name": "link_type",
                                    "type": "radio",
                                    "instructions": "Choose to link to a page or post in the website, or to use an external link",
                                    "required": 0,
                                    "conditional_logic": 0,
                                    "wrapper": {
                                        "width": "",
                                        "class": "",
                                        "id": ""
                                    },
                                    "choices": {
                                        "in": "Internal",
                                        "ex": "External",
                                        "lt": "Contact",
                                        "video": "Video"
                                    },
                                    "allow_null": 0,
                                    "other_choice": 0,
                                    "save_other_choice": 0,
                                    "default_value": "",
                                    "layout": "vertical",
                                    "return_format": "value"
                                },
                                {
                                    "key": "field_5acc86f5e54b7",
                                    "label": "Internal Link",
                                    "name": "internal_link",
                                    "type": "post_object",
                                    "instructions": "",
                                    "required": 0,
                                    "conditional_logic": [
                                        [
                                            {
                                                "field": "field_5acc86f5e54b6",
                                                "operator": "==",
                                                "value": "in"
                                            }
                                        ]
                                    ],
                                    "wrapper": {
                                        "width": "50",
                                        "class": "",
                                        "id": ""
                                    },
                                    "post_type": [],
                                    "taxonomy": [],
                                    "allow_null": 0,
                                    "multiple": 0,
                                    "return_format": "id",
                                    "ui": 1
                                },
                                {
                                    "key": "field_5acc86f5e54b8",
                                    "label": "External Link",
                                    "name": "external_link",
                                    "type": "url",
                                    "instructions": "",
                                    "required": 0,
                                    "conditional_logic": [
                                        [
                                            {
                                                "field": "field_5acc86f5e54b6",
                                                "operator": "==",
                                                "value": "ex"
                                            }
                                        ]
                                    ],
                                    "wrapper": {
                                        "width": "50",
                                        "class": "",
                                        "id": ""
                                    },
                                    "default_value": "",
                                    "placeholder": ""
                                },
                                {
                                    "key": "field_5ba39eba95b28",
                                    "label": "Video Link",
                                    "name": "video_link",
                                    "type": "text",
                                    "instructions": "",
                                    "required": 0,
                                    "conditional_logic": [
                                        [
                                            {
                                                "field": "field_5acc86f5e54b6",
                                                "operator": "==",
                                                "value": "video"
                                            }
                                        ]
                                    ],
                                    "wrapper": {
                                        "width": "",
                                        "class": "",
                                        "id": ""
                                    },
                                    "default_value": "",
                                    "placeholder": "",
                                    "prepend": "",
                                    "append": "",
                                    "maxlength": ""
                                },
                                {
                                    "key": "field_5acc86f5e54b9",
                                    "label": "Link Text",
                                    "name": "link_text",
                                    "type": "text",
                                    "instructions": "",
                                    "required": 0,
                                    "conditional_logic": [
                                        [
                                            {
                                                "field": "field_5acc86f5e54b6",
                                                "operator": "!=",
                                                "value": "no"
                                            }
                                        ]
                                    ],
                                    "wrapper": {
                                        "width": "50",
                                        "class": "",
                                        "id": ""
                                    },
                                    "default_value": "",
                                    "placeholder": "",
                                    "prepend": "",
                                    "append": "",
                                    "maxlength": ""
                                }
                            ]
                        }
                    ],
                    "min": "",
                    "max": ""
                },
                "5a97cb071ff76": {
                    "key": "5a97cb071ff76",
                    "name": "full_width_block",
                    "label": "Full Width Block",
                    "display": "block",
                    "sub_fields": [
                        {
                            "key": "field_5a97cb1a1ff77",
                            "label": "Top Image",
                            "name": "top_image",
                            "type": "image",
                            "instructions": "",
                            "required": 0,
                            "conditional_logic": 0,
                            "wrapper": {
                                "width": "",
                                "class": "",
                                "id": ""
                            },
                            "return_format": "id",
                            "preview_size": "thumbnail",
                            "library": "all",
                            "min_width": "",
                            "min_height": "",
                            "min_size": "",
                            "max_width": "",
                            "max_height": "",
                            "max_size": "",
                            "mime_types": ""
                        },
                        {
                            "key": "field_5a97cb261ff78",
                            "label": "Title",
                            "name": "title",
                            "type": "text",
                            "instructions": "",
                            "required": 0,
                            "conditional_logic": 0,
                            "wrapper": {
                                "width": "50",
                                "class": "",
                                "id": ""
                            },
                            "default_value": "",
                            "placeholder": "",
                            "prepend": "",
                            "append": "",
                            "maxlength": ""
                        },
                        {
                            "key": "field_5a97cb2b1ff79",
                            "label": "Sub Title",
                            "name": "sub_title",
                            "type": "text",
                            "instructions": "",
                            "required": 0,
                            "conditional_logic": 0,
                            "wrapper": {
                                "width": "50",
                                "class": "",
                                "id": ""
                            },
                            "default_value": "",
                            "placeholder": "",
                            "prepend": "",
                            "append": "",
                            "maxlength": ""
                        },
                        {
                            "key": "field_5acc86c8257da",
                            "label": "Links",
                            "name": "links",
                            "type": "repeater",
                            "instructions": "",
                            "required": 0,
                            "conditional_logic": 0,
                            "wrapper": {
                                "width": "",
                                "class": "",
                                "id": ""
                            },
                            "collapsed": "",
                            "min": 0,
                            "max": 0,
                            "layout": "block",
                            "button_label": "",
                            "sub_fields": [
                                {
                                    "key": "field_5acc86c8257db",
                                    "label": "Link Type",
                                    "name": "link_type",
                                    "type": "radio",
                                    "instructions": "Choose to link to a page or post in the website, or to use an external link",
                                    "required": 0,
                                    "conditional_logic": 0,
                                    "wrapper": {
                                        "width": "",
                                        "class": "",
                                        "id": ""
                                    },
                                    "choices": {
                                        "in": "Internal",
                                        "ex": "External",
                                        "lt": "Contact",
                                        "video": "Video"
                                    },
                                    "allow_null": 0,
                                    "other_choice": 0,
                                    "save_other_choice": 0,
                                    "default_value": "",
                                    "layout": "horizontal",
                                    "return_format": "value"
                                },
                                {
                                    "key": "field_5acc86c8257dc",
                                    "label": "Internal Link",
                                    "name": "internal_link",
                                    "type": "post_object",
                                    "instructions": "",
                                    "required": 0,
                                    "conditional_logic": [
                                        [
                                            {
                                                "field": "field_5acc86c8257db",
                                                "operator": "==",
                                                "value": "in"
                                            }
                                        ]
                                    ],
                                    "wrapper": {
                                        "width": "50",
                                        "class": "",
                                        "id": ""
                                    },
                                    "post_type": [],
                                    "taxonomy": [],
                                    "allow_null": 0,
                                    "multiple": 0,
                                    "return_format": "id",
                                    "ui": 1
                                },
                                {
                                    "key": "field_5acc86c8257dd",
                                    "label": "External Link",
                                    "name": "external_link",
                                    "type": "url",
                                    "instructions": "",
                                    "required": 0,
                                    "conditional_logic": [
                                        [
                                            {
                                                "field": "field_5acc86c8257db",
                                                "operator": "==",
                                                "value": "ex"
                                            }
                                        ]
                                    ],
                                    "wrapper": {
                                        "width": "50",
                                        "class": "",
                                        "id": ""
                                    },
                                    "default_value": "",
                                    "placeholder": ""
                                },
                                {
                                    "key": "field_5ba39ed495b29",
                                    "label": "Video Link",
                                    "name": "video_link",
                                    "type": "text",
                                    "instructions": "",
                                    "required": 0,
                                    "conditional_logic": [
                                        [
                                            {
                                                "field": "field_5acc86c8257db",
                                                "operator": "==",
                                                "value": "video"
                                            }
                                        ]
                                    ],
                                    "wrapper": {
                                        "width": "",
                                        "class": "",
                                        "id": ""
                                    },
                                    "default_value": "",
                                    "placeholder": "",
                                    "prepend": "",
                                    "append": "",
                                    "maxlength": ""
                                },
                                {
                                    "key": "field_5acc86c8257de",
                                    "label": "Link Text",
                                    "name": "link_text",
                                    "type": "text",
                                    "instructions": "",
                                    "required": 0,
                                    "conditional_logic": [
                                        [
                                            {
                                                "field": "field_5acc86c8257db",
                                                "operator": "!=",
                                                "value": "no"
                                            }
                                        ]
                                    ],
                                    "wrapper": {
                                        "width": "50",
                                        "class": "",
                                        "id": ""
                                    },
                                    "default_value": "",
                                    "placeholder": "",
                                    "prepend": "",
                                    "append": "",
                                    "maxlength": ""
                                }
                            ]
                        }
                    ],
                    "min": "",
                    "max": ""
                }
            },
            "button_label": "Add Row",
            "min": "",
            "max": ""
        }
    ],
    "location": [
        [
            {
                "param": "page_template",
                "operator": "==",
                "value": "template-beyond.php"
            }
        ],
        [
            {
                "param": "page_template",
                "operator": "==",
                "value": "template-what.php"
            }
        ]
    ],
    "menu_order": 0,
    "position": "normal",
    "style": "default",
    "label_placement": "top",
    "instruction_placement": "label",
    "hide_on_screen": [
        "the_content",
        "excerpt",
        "custom_fields",
        "discussion",
        "comments",
        "revisions",
        "author",
        "format",
        "tags",
        "send-trackbacks"
    ],
    "active": 1,
    "description": "",
    "modified": 1589533200
}