{
    "key": "group_5a9d4f40c9269",
    "title": "Two Column Vertical",
    "fields": [
        {
            "key": "field_5a9d50006f383",
            "label": "Two Column Vertical",
            "name": "two_column_vertical",
            "type": "group",
            "instructions": "",
            "required": 0,
            "conditional_logic": 0,
            "wrapper": {
                "width": "",
                "class": "",
                "id": ""
            },
            "sub_fields": [
                {
                    "key": "field_5a9d50f0b7760",
                    "label": "Content",
                    "name": "content",
                    "type": "flexible_content",
                    "instructions": "",
                    "required": 0,
                    "conditional_logic": 0,
                    "wrapper": {
                        "width": "",
                        "class": "",
                        "id": ""
                    },
                    "layouts": {
                        "5a9d51ba1403f": {
                            "key": "5a9d51ba1403f",
                            "name": "standard_block",
                            "label": "Standard Block",
                            "display": "block",
                            "sub_fields": [
                                {
                                    "key": "field_5a9d51bb5ab3a",
                                    "label": "Image",
                                    "name": "image",
                                    "type": "image",
                                    "instructions": "",
                                    "required": 0,
                                    "conditional_logic": 0,
                                    "wrapper": {
                                        "width": "50",
                                        "class": "",
                                        "id": ""
                                    },
                                    "return_format": "id",
                                    "preview_size": "thumbnail",
                                    "library": "all",
                                    "min_width": "",
                                    "min_height": "",
                                    "min_size": "",
                                    "max_width": "",
                                    "max_height": "",
                                    "max_size": "",
                                    "mime_types": ""
                                },
                                {
                                    "key": "field_5a9d51ce5ab3b",
                                    "label": "Quote",
                                    "name": "quote",
                                    "type": "text",
                                    "instructions": "",
                                    "required": 0,
                                    "conditional_logic": 0,
                                    "wrapper": {
                                        "width": "50",
                                        "class": "",
                                        "id": ""
                                    },
                                    "default_value": "",
                                    "placeholder": "",
                                    "prepend": "",
                                    "append": "",
                                    "maxlength": ""
                                },
                                {
                                    "key": "field_5a9d51d55ab3c",
                                    "label": "Info Title",
                                    "name": "info_title",
                                    "type": "flexible_content",
                                    "instructions": "",
                                    "required": 0,
                                    "conditional_logic": 0,
                                    "wrapper": {
                                        "width": "",
                                        "class": "",
                                        "id": ""
                                    },
                                    "layouts": {
                                        "5a9d51f85ab3d": {
                                            "key": "5a9d51f85ab3d",
                                            "name": "standard_sub_block",
                                            "label": "Standard Sub Block",
                                            "display": "block",
                                            "sub_fields": [
                                                {
                                                    "key": "field_5a9d54eea8113",
                                                    "label": "Micro Title",
                                                    "name": "micro_title",
                                                    "type": "text",
                                                    "instructions": "",
                                                    "required": 0,
                                                    "conditional_logic": 0,
                                                    "wrapper": {
                                                        "width": "50",
                                                        "class": "",
                                                        "id": ""
                                                    },
                                                    "default_value": "",
                                                    "placeholder": "",
                                                    "prepend": "",
                                                    "append": "",
                                                    "maxlength": ""
                                                },
                                                {
                                                    "key": "field_5a9d54f6a8114",
                                                    "label": "Title",
                                                    "name": "title",
                                                    "type": "text",
                                                    "instructions": "",
                                                    "required": 0,
                                                    "conditional_logic": 0,
                                                    "wrapper": {
                                                        "width": "50",
                                                        "class": "",
                                                        "id": ""
                                                    },
                                                    "default_value": "",
                                                    "placeholder": "",
                                                    "prepend": "",
                                                    "append": "",
                                                    "maxlength": ""
                                                },
                                                {
                                                    "key": "field_5a9d55d5a7262",
                                                    "label": "Title Colour",
                                                    "name": "title_colour",
                                                    "type": "radio",
                                                    "instructions": "Red or Grey Title",
                                                    "required": 0,
                                                    "conditional_logic": 0,
                                                    "wrapper": {
                                                        "width": "",
                                                        "class": "",
                                                        "id": ""
                                                    },
                                                    "choices": {
                                                        "red": "Red",
                                                        "grey": "Grey"
                                                    },
                                                    "allow_null": 0,
                                                    "other_choice": 0,
                                                    "save_other_choice": 0,
                                                    "default_value": "",
                                                    "layout": "horizontal",
                                                    "return_format": "value"
                                                }
                                            ],
                                            "min": "",
                                            "max": ""
                                        },
                                        "5a9d51eedb9a6": {
                                            "key": "5a9d51eedb9a6",
                                            "name": "number_sub_block",
                                            "label": "Number Sub Block",
                                            "display": "block",
                                            "sub_fields": [
                                                {
                                                    "key": "field_5a9d64c65f2dc",
                                                    "label": "Micro Title",
                                                    "name": "micro_title",
                                                    "type": "text",
                                                    "instructions": "",
                                                    "required": 0,
                                                    "conditional_logic": 0,
                                                    "wrapper": {
                                                        "width": "50",
                                                        "class": "",
                                                        "id": ""
                                                    },
                                                    "default_value": "",
                                                    "placeholder": "",
                                                    "prepend": "",
                                                    "append": "",
                                                    "maxlength": ""
                                                },
                                                {
                                                    "key": "field_5a9d54d9a8112",
                                                    "label": "Number",
                                                    "name": "number",
                                                    "type": "text",
                                                    "instructions": "",
                                                    "required": 0,
                                                    "conditional_logic": 0,
                                                    "wrapper": {
                                                        "width": "50",
                                                        "class": "",
                                                        "id": ""
                                                    },
                                                    "default_value": "",
                                                    "placeholder": "",
                                                    "prepend": "",
                                                    "append": "",
                                                    "maxlength": ""
                                                },
                                                {
                                                    "key": "field_5a9d57770af76",
                                                    "label": "Number Unit",
                                                    "name": "number_unit",
                                                    "type": "text",
                                                    "instructions": "",
                                                    "required": 0,
                                                    "conditional_logic": 0,
                                                    "wrapper": {
                                                        "width": "50",
                                                        "class": "",
                                                        "id": ""
                                                    },
                                                    "default_value": "",
                                                    "placeholder": "",
                                                    "prepend": "",
                                                    "append": "",
                                                    "maxlength": ""
                                                },
                                                {
                                                    "key": "field_5a9d57880af77",
                                                    "label": "Number Text",
                                                    "name": "number_text",
                                                    "type": "text",
                                                    "instructions": "",
                                                    "required": 0,
                                                    "conditional_logic": 0,
                                                    "wrapper": {
                                                        "width": "50",
                                                        "class": "",
                                                        "id": ""
                                                    },
                                                    "default_value": "",
                                                    "placeholder": "",
                                                    "prepend": "",
                                                    "append": "",
                                                    "maxlength": ""
                                                }
                                            ],
                                            "min": "",
                                            "max": ""
                                        }
                                    },
                                    "button_label": "Add Row",
                                    "min": "",
                                    "max": 1
                                },
                                {
                                    "key": "field_5a9d536324eb7",
                                    "label": "Line Flag",
                                    "name": "line_flag",
                                    "type": "radio",
                                    "instructions": "Display a red line under the title",
                                    "required": 0,
                                    "conditional_logic": 0,
                                    "wrapper": {
                                        "width": "",
                                        "class": "",
                                        "id": ""
                                    },
                                    "choices": {
                                        "yes": "Yes",
                                        "no": "No"
                                    },
                                    "allow_null": 0,
                                    "other_choice": 0,
                                    "save_other_choice": 0,
                                    "default_value": "",
                                    "layout": "horizontal",
                                    "return_format": "value"
                                },
                                {
                                    "key": "field_5a9d537d24eb8",
                                    "label": "Sub Content",
                                    "name": "sub_content",
                                    "type": "textarea",
                                    "instructions": "",
                                    "required": 0,
                                    "conditional_logic": 0,
                                    "wrapper": {
                                        "width": "",
                                        "class": "",
                                        "id": ""
                                    },
                                    "default_value": "",
                                    "placeholder": "",
                                    "maxlength": "",
                                    "rows": "",
                                    "new_lines": "wpautop"
                                },
                                {
                                    "key": "field_5a9d57910af78",
                                    "label": "Links or Logo",
                                    "name": "links_or_logo",
                                    "type": "radio",
                                    "instructions": "Display a Link or a Logo",
                                    "required": 0,
                                    "conditional_logic": 0,
                                    "wrapper": {
                                        "width": "",
                                        "class": "",
                                        "id": ""
                                    },
                                    "choices": {
                                        "logo": "Logo",
                                        "link": "Link"
                                    },
                                    "allow_null": 0,
                                    "other_choice": 0,
                                    "save_other_choice": 0,
                                    "default_value": "",
                                    "layout": "horizontal",
                                    "return_format": "value"
                                },
                                {
                                    "key": "field_5a9d57d20af79",
                                    "label": "Logo",
                                    "name": "logo",
                                    "type": "image",
                                    "instructions": "",
                                    "required": 0,
                                    "conditional_logic": [
                                        [
                                            {
                                                "field": "field_5a9d57910af78",
                                                "operator": "==",
                                                "value": "logo"
                                            }
                                        ]
                                    ],
                                    "wrapper": {
                                        "width": "",
                                        "class": "",
                                        "id": ""
                                    },
                                    "return_format": "id",
                                    "preview_size": "thumbnail",
                                    "library": "all",
                                    "min_width": "",
                                    "min_height": "",
                                    "min_size": "",
                                    "max_width": "",
                                    "max_height": "",
                                    "max_size": "",
                                    "mime_types": ""
                                },
                                {
                                    "key": "field_5a9d58f38bbec",
                                    "label": "Links",
                                    "name": "links",
                                    "type": "repeater",
                                    "instructions": "",
                                    "required": 0,
                                    "conditional_logic": [
                                        [
                                            {
                                                "field": "field_5a9d57910af78",
                                                "operator": "==",
                                                "value": "link"
                                            }
                                        ]
                                    ],
                                    "wrapper": {
                                        "width": "",
                                        "class": "",
                                        "id": ""
                                    },
                                    "collapsed": "",
                                    "min": 0,
                                    "max": 2,
                                    "layout": "block",
                                    "button_label": "",
                                    "sub_fields": [
                                        {
                                            "key": "field_5a9d58f38bbed",
                                            "label": "Link Type",
                                            "name": "link_type",
                                            "type": "radio",
                                            "instructions": "Choose to link to a page or post in the website, or to use an external link",
                                            "required": 0,
                                            "conditional_logic": 0,
                                            "wrapper": {
                                                "width": "",
                                                "class": "",
                                                "id": ""
                                            },
                                            "choices": {
                                                "in": "Internal",
                                                "ex": "External",
                                                "lt": "Contact",
                                                "video": "Video"
                                            },
                                            "allow_null": 0,
                                            "other_choice": 0,
                                            "save_other_choice": 0,
                                            "default_value": "",
                                            "layout": "horizontal",
                                            "return_format": "value"
                                        },
                                        {
                                            "key": "field_5a9d58f38bbee",
                                            "label": "Internal Link",
                                            "name": "internal_link",
                                            "type": "post_object",
                                            "instructions": "",
                                            "required": 0,
                                            "conditional_logic": [
                                                [
                                                    {
                                                        "field": "field_5a9d58f38bbed",
                                                        "operator": "==",
                                                        "value": "in"
                                                    }
                                                ]
                                            ],
                                            "wrapper": {
                                                "width": "50",
                                                "class": "",
                                                "id": ""
                                            },
                                            "post_type": [],
                                            "taxonomy": [],
                                            "allow_null": 0,
                                            "multiple": 0,
                                            "return_format": "id",
                                            "ui": 1
                                        },
                                        {
                                            "key": "field_5a9d58f38bbef",
                                            "label": "External Link",
                                            "name": "external_link",
                                            "type": "url",
                                            "instructions": "",
                                            "required": 0,
                                            "conditional_logic": [
                                                [
                                                    {
                                                        "field": "field_5a9d58f38bbed",
                                                        "operator": "==",
                                                        "value": "ex"
                                                    }
                                                ]
                                            ],
                                            "wrapper": {
                                                "width": "50",
                                                "class": "",
                                                "id": ""
                                            },
                                            "default_value": "",
                                            "placeholder": ""
                                        },
                                        {
                                            "key": "field_5ba3aa8375b1d",
                                            "label": "Video Link",
                                            "name": "video_link",
                                            "type": "text",
                                            "instructions": "",
                                            "required": 0,
                                            "conditional_logic": [
                                                [
                                                    {
                                                        "field": "field_5a9d58f38bbed",
                                                        "operator": "==",
                                                        "value": "video"
                                                    }
                                                ]
                                            ],
                                            "wrapper": {
                                                "width": "",
                                                "class": "",
                                                "id": ""
                                            },
                                            "default_value": "",
                                            "placeholder": "",
                                            "prepend": "",
                                            "append": "",
                                            "maxlength": ""
                                        },
                                        {
                                            "key": "field_5a9d58f38bbf0",
                                            "label": "Link Text",
                                            "name": "link_text",
                                            "type": "text",
                                            "instructions": "",
                                            "required": 0,
                                            "conditional_logic": 0,
                                            "wrapper": {
                                                "width": "50",
                                                "class": "",
                                                "id": ""
                                            },
                                            "default_value": "",
                                            "placeholder": "",
                                            "prepend": "",
                                            "append": "",
                                            "maxlength": ""
                                        }
                                    ]
                                }
                            ],
                            "min": "",
                            "max": ""
                        },
                        "5a9d531304bcc": {
                            "key": "5a9d531304bcc",
                            "name": "full_width_block",
                            "label": "Full Width Block",
                            "display": "block",
                            "sub_fields": [
                                {
                                    "key": "field_5a9d569c918ba",
                                    "label": "Title",
                                    "name": "title",
                                    "type": "text",
                                    "instructions": "",
                                    "required": 0,
                                    "conditional_logic": 0,
                                    "wrapper": {
                                        "width": "50",
                                        "class": "",
                                        "id": ""
                                    },
                                    "default_value": "",
                                    "placeholder": "",
                                    "prepend": "",
                                    "append": "",
                                    "maxlength": ""
                                },
                                {
                                    "key": "field_5a9d56e7918bc",
                                    "label": "Sub Title",
                                    "name": "sub_title",
                                    "type": "text",
                                    "instructions": "",
                                    "required": 0,
                                    "conditional_logic": 0,
                                    "wrapper": {
                                        "width": "50",
                                        "class": "",
                                        "id": ""
                                    },
                                    "default_value": "",
                                    "placeholder": "",
                                    "prepend": "",
                                    "append": "",
                                    "maxlength": ""
                                },
                                {
                                    "key": "field_5a9d56a4918bb",
                                    "label": "Title Colour",
                                    "name": "title_colour",
                                    "type": "radio",
                                    "instructions": "Red or Grey Title",
                                    "required": 0,
                                    "conditional_logic": 0,
                                    "wrapper": {
                                        "width": "50",
                                        "class": "",
                                        "id": ""
                                    },
                                    "choices": {
                                        "red": "Red",
                                        "grey": "Grey"
                                    },
                                    "allow_null": 0,
                                    "other_choice": 0,
                                    "save_other_choice": 0,
                                    "default_value": "",
                                    "layout": "horizontal",
                                    "return_format": "value"
                                }
                            ],
                            "min": "",
                            "max": ""
                        }
                    },
                    "button_label": "Add Row",
                    "min": "",
                    "max": ""
                },
                {
                    "key": "field_5a9d532704bce",
                    "label": "Display Case Study",
                    "name": "display_case_study",
                    "type": "radio",
                    "instructions": "Display a case study at the bottom of this page.",
                    "required": 0,
                    "conditional_logic": 0,
                    "wrapper": {
                        "width": "",
                        "class": "",
                        "id": ""
                    },
                    "choices": {
                        "no": "No",
                        "yes": "Yes"
                    },
                    "allow_null": 0,
                    "other_choice": 0,
                    "save_other_choice": 0,
                    "default_value": "",
                    "layout": "horizontal",
                    "return_format": "value"
                },
                {
                    "key": "field_5a9d5ecf3f1e3",
                    "label": "Case Study",
                    "name": "case_study",
                    "type": "post_object",
                    "instructions": "",
                    "required": 0,
                    "conditional_logic": [
                        [
                            {
                                "field": "field_5a9d532704bce",
                                "operator": "==",
                                "value": "yes"
                            }
                        ]
                    ],
                    "wrapper": {
                        "width": "",
                        "class": "",
                        "id": ""
                    },
                    "post_type": [
                        "case_studies"
                    ],
                    "taxonomy": [],
                    "allow_null": 0,
                    "multiple": 0,
                    "return_format": "id",
                    "ui": 1
                }
            ],
            "layout": "block"
        }
    ],
    "location": [
        [
            {
                "param": "page_template",
                "operator": "==",
                "value": "template-maintenance.php"
            }
        ],
        [
            {
                "param": "page_template",
                "operator": "==",
                "value": "template-who.php"
            }
        ],
        [
            {
                "param": "page_template",
                "operator": "==",
                "value": "template-bespoke.php"
            }
        ]
    ],
    "menu_order": 0,
    "position": "normal",
    "style": "default",
    "label_placement": "top",
    "instruction_placement": "label",
    "hide_on_screen": "",
    "active": 1,
    "description": "",
    "modified": 1589533200
}